{
  "actions": [
    {
      "type": "pointer",
      "id": "finger1",
      "parameters": {
        "pointerType": "mouse"
      },
      "actions": [
        {
          "type": "pointerMove",
          "duration": 0,
          "x": 1188,
          "y": 26
        }
      ]
    }
  ]
}